[gd_scene load_steps=5 format=2]

[ext_resource path="res://Geography.gd" type="Script" id=1]
[ext_resource path="res://Landmark.gd" type="Script" id=2]
[ext_resource path="res://Landfill.gd" type="Script" id=3]
[ext_resource path="res://Road.gd" type="Script" id=4]

[node name="Geography" type="Node2D"]
script = ExtResource( 1 )

[node name="Plant" type="Node2D" parent="."]
position = Vector2( 150, 150 )
script = ExtResource( 2 )
pollution = 0.2

[node name="Plant2" type="Node2D" parent="."]
position = Vector2( 750, 251 )
script = ExtResource( 2 )
pollution = 0.34

[node name="Plant3" type="Node2D" parent="."]
position = Vector2( 150, 400 )
script = ExtResource( 2 )
pollution = 0.65

[node name="Plant4" type="Node2D" parent="."]
position = Vector2( 700, 500 )
script = ExtResource( 2 )

[node name="Plant5" type="Node2D" parent="."]
position = Vector2( 450, 150 )
script = ExtResource( 2 )
pollution = 0.2

[node name="LandFIll" type="Node2D" parent="."]
position = Vector2( 450, 500 )
script = ExtResource( 3 )
pollution = 0.3

[node name="Line2D" type="Line2D" parent="."]
points = PoolVector2Array( 150, 150, 250, 150, 250, 100, 350, 100, 350, 150, 400, 150, 450, 150 )
script = ExtResource( 4 )

